kb,ls,10:9,kl,ll
kl,ll,10:6,mwo,mz
mw,kb,10:1,pp,mz
kl,ll,6:10,kb,pp
mwo,mw,10:3,gc,pp
kl,mw,6:10,kb,mc
kl,mz,1:10,mwo,kb
mc,ll,8:10,mz,kl
mwo,mw,10:6,kl,mc
mwo,kl,10:8,kb,pp
mz,kb,10:6,mc,ll
kl,pp,8:10,kb,ll
kb,mz,10:4,pp,mwo
mc,kl,2:10,kb,ll
ll,kb,10:4,kl,mc
mw,kl,10:5,mc,ll
mwo,mw,10:4,kl,mz
pp,kl,10:2,kb,mz
gc,kl,9:10,kb,mw
mw,mc,2:10,kl,mz
kb,mwo,9:10,pp,kl
